{
    "dateTime": "1/26/2022 2:45:21 PM",
    "unknownExpressions": [
        "so i come"
    ],
    "drinksOrdered": [
        {
            "drinkName": "Red Alert",
            "amount": 1
        }
    ]
}