%YAML 1.1
%TAG !u! tag:unity3d.com,2011:
--- !u!1045 &1
EditorBuildSettings:
  m_ObjectHideFlags: 0
  serializedVersion: 2
  m_Scenes:
  - enabled: 1
    path: Assets/Scenes/RobobarCopyData.unity
    guid: 2ba43dcae08c13e439d0199b088ac981
  - enabled: 1
    path: Assets/Scenes/Main Scene.unity
    guid: 6c9ff47069d5cfd42bf18056bb8c2d0c
  - enabled: 0
    path: Assets/OpenCVForUnity/Examples/ContribModules/aruco/ArUcoExample/ArUcoExample.unity
    guid: 89e1e0e7cb778a9459dc29461ecb3007
  m_configObjects: {}
